{
  "project_info": {
    "project_number": "139906346796",
    "project_id": "flutter-notification-3d064",
    "storage_bucket": "flutter-notification-3d064.appspot.com"
  },
  "client": [
    {
      "client_info": {
        "mobilesdk_app_id": "1:139906346796:android:b5d4b145fe61d32ecfc689",
        "android_client_info": {
          "package_name": "com.plangraficostudio.notification"
        }
      },
      "oauth_client": [
        {
          "client_id": "139906346796-gl3gh2n3h6nc8q8jq09ba4gjbe9bn7ue.apps.googleusercontent.com",
          "client_type": 1,
          "android_info": {
            "package_name": "com.plangraficostudio.notification",
            "certificate_hash": "4460ad67ec557a6e2c4fe8396acb7319a7058000"
          }
        },
        {
          "client_id": "139906346796-tssrigdl234es9hbfv13qb9nl4vr04kj.apps.googleusercontent.com",
          "client_type": 3
        }
      ],
      "api_key": [
        {
          "current_key": "AIzaSyCuJXn_21q3ORr5TY1jJRDCvRRX0lIlVrc"
        }
      ],
      "services": {
        "appinvite_service": {
          "other_platform_oauth_client": [
            {
              "client_id": "139906346796-tssrigdl234es9hbfv13qb9nl4vr04kj.apps.googleusercontent.com",
              "client_type": 3
            }
          ]
        }
      }
    }
  ],
  "configuration_version": "1"
}